<?xml version="1.0" encoding="UTF-8" standalone="no"?>
<svg width="663px" height="323px" viewBox="0 0 663 323" version="1.1" xmlns="http://www.w3.org/2000/svg" xmlns:xlink="http://www.w3.org/1999/xlink" xmlns:sketch="http://www.bohemiancoding.com/sketch/ns">
    <title>Slice 1</title>
    <description>Created with Sketch (http://www.bohemiancoding.com/sketch)</description>
    <defs></defs>
    <g id="Page-1" stroke="none" stroke-width="1" fill="none" fill-rule="evenodd" sketch:type="MSPage">
        <g id="logo" sketch:type="MSLayerGroup" transform="translate(1.000000, 0.000000)" fill="#000000">
            <g id="Group" sketch:type="MSShapeGroup">
                <path d="M79.889,265.926 L95.193,265.926 L95.193,276.476 C98.675,269.088 104.055,265.183 113.019,265.075 L113.019,279.314 C101.734,279.212 95.193,282.901 95.193,293.475 L95.193,321.101 L79.889,321.101 L79.889,265.926 L79.889,265.926 Z" id="Shape"></path>
                <path d="M117.567,294.356 L117.567,293.521 C117.567,275.681 130.329,264.805 146.043,264.805 C158.821,264.805 170.622,270.401 172.001,286.241 L157.554,286.241 C156.496,279.794 152.584,276.841 146.366,276.841 C138.453,276.841 133.178,282.754 133.178,293.298 L133.178,294.148 C133.178,305.225 138.118,310.915 146.668,310.915 C152.8,310.915 157.762,307.321 158.487,300.257 L172.307,300.257 C171.474,313.343 161.982,322.418 145.948,322.418 C129.804,322.416 117.567,312.39 117.567,294.356 L117.567,294.356 Z" id="Shape"></path>
                <path d="M179.275,240.919 L194.589,240.919 L194.589,274.684 C197.323,269.188 203.331,264.665 212.522,264.665 C223.359,264.665 231.072,271.196 231.072,285.977 L231.072,321.101 L215.777,321.101 L215.777,288.187 C215.777,280.705 212.838,277.104 206.066,277.104 C199.521,277.104 194.589,281.107 194.589,289.241 L194.589,321.101 L179.275,321.101 L179.275,240.919 L179.275,240.919 Z" id="Shape"></path>
                <path d="M239.175,250.095 C239.175,245.356 242.976,241.769 247.832,241.769 C252.802,241.769 256.582,245.356 256.582,250.095 C256.582,254.841 252.802,258.436 247.832,258.436 C242.976,258.436 239.175,254.841 239.175,250.095 L239.175,250.095 Z M240.34,265.926 L255.537,265.926 L255.537,321.101 L240.34,321.101 L240.34,265.926 L240.34,265.926 Z" id="Shape"></path>
                <path d="M270.837,304.907 L270.837,276.947 L263.771,276.947 L263.771,266.072 L270.837,266.072 L270.837,254.153 L286.034,254.153 L286.034,266.072 L297.643,266.072 L297.643,276.947 L286.034,276.947 L286.034,303.541 C286.034,307.953 288.245,310.071 292.14,310.071 C294.456,310.071 296.151,309.754 297.952,309.012 L297.952,320.83 C295.836,321.573 292.79,322.313 288.646,322.313 C277.075,322.315 270.837,316.395 270.837,304.907 L270.837,304.907 Z" id="Shape"></path>
                <path d="M303.86,294.356 L303.86,293.521 C303.86,276.107 316.194,264.805 332.229,264.805 C346.475,264.805 359.143,273.13 359.143,292.873 L359.143,297.107 L319.365,297.107 C319.792,306.276 324.746,311.546 333.077,311.546 C340.156,311.546 343.637,308.494 344.581,303.84 L359.036,303.84 C357.241,315.767 347.751,322.415 332.651,322.415 C315.995,322.416 303.86,311.966 303.86,294.356 L303.86,294.356 Z M344.261,287.699 C343.737,279.367 339.542,275.362 332.23,275.362 C325.378,275.362 320.726,279.893 319.597,287.699 L344.261,287.699 L344.261,287.699 Z" id="Shape"></path>
                <path d="M366.315,294.356 L366.315,293.521 C366.315,275.681 379.093,264.805 394.807,264.805 C407.564,264.805 419.392,270.401 420.752,286.241 L406.297,286.241 C405.242,279.794 401.356,276.841 395.127,276.841 C387.217,276.841 381.931,282.754 381.931,293.298 L381.931,294.148 C381.931,305.225 386.893,310.915 395.442,310.915 C401.548,310.915 406.51,307.321 407.261,300.257 L421.076,300.257 C420.232,313.343 410.734,322.418 394.701,322.418 C378.56,322.416 366.315,312.39 366.315,294.356 L366.315,294.356 Z" id="Shape"></path>
                <path d="M433.527,304.907 L433.527,276.947 L426.465,276.947 L426.465,266.072 L433.527,266.072 L433.527,254.153 L448.724,254.153 L448.724,266.072 L460.338,266.072 L460.338,276.947 L448.724,276.947 L448.724,303.541 C448.724,307.953 450.951,310.071 454.834,310.071 C457.176,310.071 458.861,309.754 460.653,309.012 L460.653,320.83 C458.533,321.573 455.457,322.313 451.347,322.313 C439.761,322.315 433.527,316.395 433.527,304.907 L433.527,304.907 Z" id="Shape"></path>
                <path d="M467.071,301.515 L467.071,265.964 L482.264,265.964 L482.264,299.426 C482.264,306.903 485.327,310.488 491.86,310.488 C498.3,310.488 503.354,306.477 503.354,298.345 L503.354,265.964 L518.544,265.964 L518.544,321.141 L503.354,321.141 L503.354,312.506 C500.526,318.087 494.927,322.315 485.852,322.315 C475.08,322.315 467.071,315.985 467.071,301.515 L467.071,301.515 Z" id="Shape"></path>
                <path d="M525.541,265.926 L540.828,265.926 L540.828,276.476 C544.306,269.088 549.686,265.183 558.654,265.075 L558.654,279.314 C547.378,279.212 540.828,282.901 540.828,293.475 L540.828,321.101 L525.541,321.101 L525.541,265.926 L525.541,265.926 Z" id="Shape"></path>
                <path d="M564.785,294.356 L564.785,293.521 C564.785,276.107 577.129,264.805 593.175,264.805 C607.401,264.805 620.069,273.13 620.069,292.873 L620.069,297.107 L580.291,297.107 C580.73,306.276 585.68,311.546 594.013,311.546 C601.096,311.546 604.556,308.494 605.516,303.84 L619.971,303.84 C618.171,315.767 608.668,322.415 593.573,322.415 C576.911,322.416 564.785,311.966 564.785,294.356 L564.785,294.356 Z M605.19,287.699 C604.678,279.367 600.441,275.362 593.174,275.362 C586.297,275.362 581.668,279.893 580.498,287.699 L605.19,287.699 L605.19,287.699 Z" id="Shape"></path>
                <path d="M58.329,321.101 L73.907,321.101 L44.625,245.195 L29.035,245.195 L-0.255,321.101 L15.343,321.101 L20.958,306.579 L52.719,306.579 L58.329,321.101 L58.329,321.101 Z M26.543,292.038 L36.847,265.393 L47.101,292.038 L26.543,292.038 L26.543,292.038 Z" id="Shape"></path>
                <rect id="Rectangle" x="0" y="154" width="105.893" height="14.541"></rect>
                <path d="M195.112,183.964 C195.112,171.11 206.931,166.245 223.806,166.245 L230.022,166.245 L230.022,164.037 C230.022,157.488 228.025,153.909 221.071,153.909 C215.055,153.909 212.319,156.963 211.684,161.693 L197.225,161.693 C198.18,148.628 208.518,142.832 222.014,142.832 C235.517,142.832 245.125,148.329 245.125,163.31 L245.125,199.27 L230.252,199.27 L230.252,192.637 C227.069,197.05 222.231,200.437 213.57,200.437 C203.561,200.436 195.112,195.597 195.112,183.964 L195.112,183.964 Z M230.022,179.969 L230.022,175.323 L224.129,175.323 C215.273,175.323 210.092,177.216 210.092,183.132 C210.092,187.156 212.521,189.786 218.11,189.786 C224.872,189.785 230.022,186.082 230.022,179.969 L230.022,179.969 Z" id="Shape"></path>
                <path d="M252.376,144.093 L267.667,144.093 L267.667,152.858 C270.419,147.371 276.431,142.833 285.616,142.833 C296.475,142.833 304.188,149.365 304.188,164.13 L304.188,199.271 L288.893,199.271 L288.893,166.349 C288.893,158.859 285.932,155.271 279.177,155.271 C272.646,155.271 267.666,159.298 267.666,167.417 L267.666,199.271 L252.375,199.271 L252.375,144.093 L252.376,144.093 Z" id="Shape"></path>
                <path d="M311.356,172.463 L311.356,171.633 C311.356,153.486 321.776,142.832 335.612,142.832 C344.47,142.832 349.962,146.729 353.02,152.34 L353.02,119.103 L368.201,119.103 L368.201,199.27 L353.02,199.27 L353.02,190.101 C350.174,195.691 343.42,200.437 335.296,200.437 C321.892,200.436 311.356,190.828 311.356,172.463 L311.356,172.463 Z M353.438,171.943 L353.438,171.109 C353.438,160.131 348.583,154.537 340.25,154.537 C331.7,154.537 326.956,160.348 326.956,171.309 L326.956,172.161 C326.956,183.131 332.229,188.5 339.833,188.5 C347.849,188.5 353.438,183.131 353.438,171.943 L353.438,171.943 Z" id="Shape"></path>
                <path d="M375.159,181.97 L389.415,181.97 C390.025,186.926 392.466,189.786 399.108,189.786 C405.013,189.786 407.765,187.559 407.765,183.77 C407.765,179.969 404.471,178.377 396.574,177.215 C381.901,175.013 376.225,170.792 376.225,160.025 C376.225,148.53 386.756,142.833 398.055,142.833 C410.291,142.833 419.486,147.264 420.838,159.917 L406.805,159.917 C405.987,155.395 403.451,153.269 398.157,153.269 C393.202,153.269 390.356,155.589 390.356,158.983 C390.356,162.46 392.985,163.829 401.006,164.988 C414.83,166.982 422.42,170.476 422.42,182.281 C422.42,194.208 413.775,200.438 399.215,200.438 C384.35,200.436 375.685,193.888 375.159,181.97 L375.159,181.97 Z" id="Shape"></path>
                <path d="M427.699,172.36 L427.699,171.519 C427.699,153.693 440.456,142.831 456.186,142.831 C468.969,142.831 480.776,148.421 482.14,164.244 L467.682,164.244 C466.617,157.805 462.719,154.859 456.494,154.859 C448.578,154.859 443.304,160.764 443.304,171.308 L443.304,172.16 C443.304,183.229 448.267,188.932 456.817,188.932 C462.94,188.932 467.902,185.337 468.632,178.273 L482.45,178.273 C481.623,191.361 472.116,200.435 456.074,200.435 C439.936,200.436 427.699,190.402 427.699,172.36 L427.699,172.36 Z" id="Shape"></path>
                <path d="M487.407,183.964 C487.407,171.11 499.224,166.245 516.107,166.245 L522.34,166.245 L522.34,164.037 C522.34,157.488 520.326,153.909 513.355,153.909 C507.334,153.909 504.622,156.963 503.956,161.693 L489.526,161.693 C490.469,148.628 500.82,142.832 514.315,142.832 C527.828,142.832 537.419,148.329 537.419,163.31 L537.419,199.27 L522.533,199.27 L522.533,192.637 C519.372,197.05 514.516,200.437 505.876,200.437 C495.841,200.436 487.407,195.597 487.407,183.964 L487.407,183.964 Z M522.341,179.969 L522.341,175.323 L516.429,175.323 C507.558,175.323 502.412,177.216 502.412,183.132 C502.412,187.156 504.813,189.786 510.421,189.786 C517.161,189.785 522.341,186.082 522.341,179.969 L522.341,179.969 Z" id="Shape"></path>
                <path d="M544.677,144.093 L559.968,144.093 L559.968,152.75 C563.032,147.47 569.462,142.832 577.593,142.832 C591.081,142.832 601.65,152.857 601.65,171.109 L601.65,171.943 C601.65,190.21 591.307,200.436 577.593,200.436 C569.043,200.436 562.814,196.208 559.968,190.828 L559.968,218.061 L544.677,218.061 L544.677,144.093 L544.677,144.093 Z M586.144,172.059 L586.144,171.21 C586.144,160.024 580.654,154.537 572.939,154.537 C564.931,154.537 559.444,160.132 559.444,171.21 L559.444,172.059 C559.444,183.131 564.715,188.5 573.05,188.5 C581.489,188.5 586.144,182.811 586.144,172.059 L586.144,172.059 Z" id="Shape"></path>
                <path d="M605.855,172.36 L605.855,171.519 C605.855,154.132 618.208,142.831 634.237,142.831 C648.475,142.831 661.138,151.172 661.138,170.899 L661.138,175.095 L621.36,175.095 C621.792,184.294 626.749,189.552 635.073,189.552 C642.139,189.552 645.634,186.504 646.577,181.867 L661.044,181.867 C659.235,193.786 649.746,200.434 634.673,200.434 C617.999,200.436 605.855,189.993 605.855,172.36 L605.855,172.36 Z M646.265,165.722 C645.724,157.395 641.521,153.375 634.238,153.375 C627.382,153.375 622.735,157.922 621.579,165.722 L646.265,165.722 L646.265,165.722 Z" id="Shape"></path>
                <path d="M151.978,184.807 L151.978,123.415 L137.446,123.415 L137.446,184.807 L137.446,199.324 L151.978,199.324 L188.884,199.324 L188.884,184.807 L151.978,184.807 Z" id="Shape"></path>
                <path d="M481.919,17.508 C486.881,17.508 490.662,13.767 490.662,8.813 C490.662,3.85 486.881,0.109 481.919,0.109 C477.056,0.109 473.253,3.85 473.253,8.813 C473.253,13.767 477.056,17.508 481.919,17.508 L481.919,17.508 Z" id="Shape"></path>
                <path d="M308.604,54.318 L308.604,53.483 C308.604,36.083 320.957,24.806 336.973,24.806 C351.228,24.806 363.873,33.122 363.873,52.865 L363.873,57.079 L324.088,57.079 C324.527,66.254 329.481,71.533 337.801,71.533 C344.888,71.533 348.369,68.48 349.324,63.827 L363.766,63.827 C361.978,75.746 352.477,82.399 337.403,82.399 C320.71,82.399 308.604,71.959 308.604,54.318 L308.604,54.318 Z M349.019,47.686 C348.477,39.347 344.261,35.358 336.974,35.358 C330.109,35.358 325.472,39.879 324.298,47.686 L349.019,47.686 L349.019,47.686 Z" id="Shape"></path>
                <path d="M369.35,63.943 L383.599,63.943 C384.236,68.906 386.672,71.735 393.293,71.735 C399.216,71.735 401.95,69.524 401.95,65.729 C401.95,61.933 398.682,60.356 390.759,59.182 C376.103,56.971 370.407,52.75 370.407,41.981 C370.407,30.487 380.958,24.807 392.261,24.807 C404.472,24.807 413.671,29.221 415.062,41.89 L401.007,41.89 C400.157,37.338 397.632,35.242 392.35,35.242 C387.388,35.242 384.542,37.568 384.542,40.924 C384.542,44.417 387.188,45.794 395.214,46.961 C409.016,48.948 416.622,52.435 416.622,64.246 C416.622,76.174 407.966,82.401 393.425,82.401 C378.539,82.399 369.888,75.854 369.35,63.943 L369.35,63.943 Z" id="Shape"></path>
                <path d="M421.261,63.943 L435.517,63.943 C436.143,68.906 438.579,71.735 445.21,71.735 C451.132,71.735 453.854,69.524 453.854,65.729 C453.854,61.933 450.589,60.356 442.684,59.182 C428.019,56.971 422.328,52.75 422.328,41.981 C422.328,30.487 432.871,24.807 444.152,24.807 C456.402,24.807 465.58,29.221 466.948,41.89 L452.924,41.89 C452.084,37.338 449.541,35.242 444.268,35.242 C439.315,35.242 436.443,37.568 436.443,40.924 C436.443,44.417 439.106,45.794 447.127,46.961 C460.925,48.948 468.524,52.435 468.524,64.246 C468.524,76.174 459.883,82.401 445.313,82.401 C430.446,82.399 421.782,75.854 421.261,63.943 L421.261,63.943 Z" id="Shape"></path>
                <rect id="Rectangle" x="474" y="26" width="15.193" height="55.167"></rect>
                <path d="M496.042,54.318 L496.042,53.483 C496.042,36.083 508.382,24.806 524.411,24.806 C538.647,24.806 551.311,33.122 551.311,52.865 L551.311,57.079 L511.546,57.079 C511.951,66.254 516.912,71.533 525.258,71.533 C532.324,71.533 535.811,68.48 536.748,63.827 L551.217,63.827 C549.407,75.746 539.923,82.399 524.828,82.399 C508.171,82.399 496.042,71.959 496.042,54.318 L496.042,54.318 Z M536.421,47.686 C535.913,39.347 531.706,35.358 524.411,35.358 C517.554,35.358 512.925,39.879 511.747,47.686 L536.421,47.686 L536.421,47.686 Z" id="Shape"></path>
                <path d="M557.102,25.819 L572.398,25.819 L572.398,36.362 C575.871,28.972 581.264,25.076 590.232,24.959 L590.232,39.206 C578.929,39.091 572.398,42.8 572.398,53.352 L572.398,80.986 L557.102,80.986 L557.102,25.819 L557.102,25.819 Z" id="Shape"></path>
                <path d="M317.292,5.071 L293.237,5.071 L278.675,5.071 L254.633,5.071 L254.633,19.611 L278.675,19.611 L278.675,80.986 L293.237,80.986 L293.237,19.611 L317.292,19.611 L317.292,5.071 Z" id="Shape"></path>
                <path d="M84.39,65.953 C84.39,53.059 96.208,48.204 113.096,48.204 L119.321,48.204 L119.321,46.002 C119.321,39.462 117.319,35.868 110.344,35.868 C104.331,35.868 101.589,38.937 100.962,43.682 L86.489,43.682 C87.448,30.604 97.792,24.807 111.282,24.807 C124.796,24.807 134.403,30.279 134.403,45.267 L134.403,81.234 L119.53,81.234 L119.53,74.588 C116.36,79.025 111.504,82.4 102.864,82.4 C92.829,82.399 84.39,77.539 84.39,65.953 L84.39,65.953 Z M119.321,61.933 L119.321,57.287 L113.407,57.287 C104.533,57.287 99.384,59.182 99.384,65.095 C99.384,69.098 101.798,71.735 107.392,71.735 C114.132,71.735 119.321,68.055 119.321,61.933 L119.321,61.933 Z" id="Shape"></path>
                <path d="M143.243,26.059 L158.544,26.059 L158.544,36.611 C162.03,29.221 167.411,25.332 176.374,25.224 L176.374,39.463 C165.089,39.347 158.544,43.049 158.544,53.593 L158.544,81.234 L143.243,81.234 L143.243,26.059 L143.243,26.059 Z" id="Shape"></path>
                <rect id="Rectangle" x="184" y="0" width="14.516" height="80.877"></rect>
                <path d="M237.05,80.986 L215.747,51.381 L236.222,26.059 L218.984,26.059 L198.91,50.894 L220.56,80.986 L237.05,80.986 Z" id="Shape"></path>
                <path d="M59.528,5.914 L38.814,61.152 L17.493,5.914 L-0.255,5.914 L-0.255,81.82 L14.302,81.82 L14.302,38.194 L31.036,81.82 L46.559,81.82 L63.3,37.197 L63.3,81.82 L77.841,81.82 L77.841,5.914 L59.528,5.914 Z" id="Shape"></path>
                <path d="M643.218,264.851 L638.257,264.851 L635.266,264.851 L630.304,264.851 L630.304,267.843 L635.266,267.843 L635.266,280.488 L638.257,280.488 L638.257,267.843 L643.218,267.843 L643.218,264.851 Z" id="Shape"></path>
                <path d="M657.35,265.028 L653.092,276.408 L648.71,265.028 L645.062,265.028 L645.062,280.666 L648.062,280.666 L648.062,271.678 L651.509,280.666 L654.691,280.666 L658.155,271.468 L658.155,280.666 L661.139,280.666 L661.139,265.028 L657.35,265.028 Z" id="Shape"></path>
            </g>
        </g>
    </g>
</svg>